EESchema Schematic File Version 2
LIBS:power
LIBS:device
LIBS:transistors
LIBS:conn
LIBS:linear
LIBS:regul
LIBS:74xx
LIBS:cmos4000
LIBS:adc-dac
LIBS:memory
LIBS:xilinx
LIBS:microcontrollers
LIBS:dsp
LIBS:microchip
LIBS:analog_switches
LIBS:motorola
LIBS:texas
LIBS:intel
LIBS:audio
LIBS:interface
LIBS:digital-audio
LIBS:philips
LIBS:display
LIBS:cypress
LIBS:siliconi
LIBS:opto
LIBS:atmel
LIBS:contrib
LIBS:valves
EELAYER 25 0
EELAYER END
$Descr A4 11693 8268
encoding utf-8
Sheet 1 1
Title ""
Date ""
Rev ""
Comp ""
Comment1 ""
Comment2 ""
Comment3 ""
Comment4 ""
$EndDescr
$Comp
L FUSE F1
U 1 1 5A84D17F
P 4800 2750
F 0 "F1" H 4900 2800 50  0000 C CNN
F 1 "BLX-A" H 4700 2700 50  0000 C CNN
F 2 "BLX-A:BLX-A" H 4800 2750 50  0001 C CNN
F 3 "" H 4800 2750 50  0000 C CNN
	1    4800 2750
	1    0    0    -1  
$EndComp
$Comp
L FUSE F2
U 1 1 5A84D2F6
P 4800 2950
F 0 "F2" H 4900 3000 50  0000 C CNN
F 1 "BLX-A" H 4700 2900 50  0000 C CNN
F 2 "BLX-A:BLX-A" H 4800 2950 50  0001 C CNN
F 3 "" H 4800 2950 50  0000 C CNN
	1    4800 2950
	1    0    0    -1  
$EndComp
$Comp
L FUSE F3
U 1 1 5A84D404
P 4800 3150
F 0 "F3" H 4900 3200 50  0000 C CNN
F 1 "BLX-A" H 4700 3100 50  0000 C CNN
F 2 "BLX-A:BLX-A" H 4800 3150 50  0001 C CNN
F 3 "" H 4800 3150 50  0000 C CNN
	1    4800 3150
	1    0    0    -1  
$EndComp
$Comp
L FUSE F4
U 1 1 5A84D447
P 4800 3350
F 0 "F4" H 4900 3400 50  0000 C CNN
F 1 "BLX-A" H 4700 3300 50  0000 C CNN
F 2 "BLX-A:BLX-A" H 4800 3350 50  0001 C CNN
F 3 "" H 4800 3350 50  0000 C CNN
	1    4800 3350
	1    0    0    -1  
$EndComp
Wire Wire Line
	4550 2750 4450 2750
Wire Wire Line
	4450 2750 4450 3400
Wire Wire Line
	4450 3350 4550 3350
Wire Wire Line
	4550 3150 4450 3150
Connection ~ 4450 3150
Wire Wire Line
	4550 2950 4450 2950
Connection ~ 4450 2950
Connection ~ 4450 3200
Connection ~ 4450 3000
$Comp
L CONN_01X08 P2
U 1 1 5A8506AA
P 5800 3050
F 0 "P2" H 5800 3500 50  0000 C CNN
F 1 "BH-18650-PC8" V 5900 3050 50  0000 C CNN
F 2 "BH18650PC8:BK-18650-PC8" H 5800 3050 50  0001 C CNN
F 3 "" H 5800 3050 50  0000 C CNN
	1    5800 3050
	1    0    0    -1  
$EndComp
Wire Wire Line
	5050 2750 5600 2750
Wire Wire Line
	5600 2750 5600 2700
Wire Wire Line
	5050 2950 5600 2950
Wire Wire Line
	5600 2950 5600 2900
Wire Wire Line
	5050 3150 5600 3150
Wire Wire Line
	5600 3150 5600 3100
Wire Wire Line
	5050 3350 5600 3350
Wire Wire Line
	5600 3350 5600 3300
$Comp
L CONN_01X08 P1
U 1 1 5A850854
P 3500 3050
F 0 "P1" H 3500 3500 50  0000 C CNN
F 1 "BH-18650-PC8" V 3600 3050 50  0000 C CNN
F 2 "BH18650PC8:BK-18650-PC8" H 3500 3050 50  0001 C CNN
F 3 "" H 3500 3050 50  0000 C CNN
	1    3500 3050
	-1   0    0    -1  
$EndComp
Wire Wire Line
	3700 2800 4450 2800
Connection ~ 4450 2800
Wire Wire Line
	3700 3000 4450 3000
Wire Wire Line
	3700 3200 4450 3200
Wire Wire Line
	4450 3400 3700 3400
Connection ~ 4450 3350
NoConn ~ 5600 2800
NoConn ~ 5600 3000
NoConn ~ 5600 3200
NoConn ~ 5600 3400
NoConn ~ 3700 3300
NoConn ~ 3700 3100
NoConn ~ 3700 2900
NoConn ~ 3700 2700
$Comp
L CONN_01X02 P3
U 1 1 5A85145B
P 4050 2250
F 0 "P3" H 4050 2400 50  0000 C CNN
F 1 "KF1000-2P" V 4150 2250 50  0000 C CNN
F 2 "BH18650PC8:KF1000-2P" H 4050 2250 50  0001 C CNN
F 3 "" H 4050 2250 50  0000 C CNN
	1    4050 2250
	0    -1   -1   0   
$EndComp
$Comp
L CONN_01X02 P4
U 1 1 5A85150A
P 4050 3800
F 0 "P4" H 4050 3950 50  0000 C CNN
F 1 "KF1000-2P" V 4150 3800 50  0000 C CNN
F 2 "BH18650PC8:KF1000-2P" H 4050 3800 50  0001 C CNN
F 3 "" H 4050 3800 50  0000 C CNN
	1    4050 3800
	0    1    1    0   
$EndComp
Wire Wire Line
	4100 3600 4100 3400
Connection ~ 4100 3400
Wire Wire Line
	4000 3600 4000 3400
Connection ~ 4000 3400
Wire Wire Line
	4100 2450 4100 2800
Connection ~ 4100 2800
Wire Wire Line
	4000 2450 4000 2800
Connection ~ 4000 2800
$Comp
L CONN_01X01 P6
U 1 1 5A85206F
P 4650 3700
F 0 "P6" H 4650 3800 50  0000 C CNN
F 1 "Pin" V 4750 3700 50  0000 C CNN
F 2 "Connect:1pin" H 4650 3700 50  0001 C CNN
F 3 "" H 4650 3700 50  0000 C CNN
	1    4650 3700
	1    0    0    -1  
$EndComp
$Comp
L CONN_01X01 P5
U 1 1 5A852143
P 4500 2450
F 0 "P5" H 4500 2550 50  0000 C CNN
F 1 "Pin" V 4600 2450 50  0000 C CNN
F 2 "Connect:1pin" H 4500 2450 50  0001 C CNN
F 3 "" H 4500 2450 50  0000 C CNN
	1    4500 2450
	1    0    0    -1  
$EndComp
Wire Wire Line
	4450 3700 4300 3700
Wire Wire Line
	4300 3700 4300 3400
Connection ~ 4300 3400
Wire Wire Line
	4300 2450 4300 2800
Connection ~ 4300 2800
$EndSCHEMATC
