G04 #@! TF.FileFunction,Soldermask,Top*
%FSLAX46Y46*%
G04 Gerber Fmt 4.6, Leading zero omitted, Abs format (unit mm)*
G04 Created by KiCad (PCBNEW 4.0.2+dfsg1-stable) date Thu 12 Apr 2018 19:19:23 NZST*
%MOMM*%
G01*
G04 APERTURE LIST*
%ADD10C,0.100000*%
%ADD11C,3.400000*%
%ADD12C,0.254000*%
G04 APERTURE END LIST*
D10*
D11*
X178000000Y-117000000D03*
X178000000Y-97333000D03*
X178000000Y-77666000D03*
X178000000Y-58000000D03*
X119950000Y-58000000D03*
X119950000Y-77666000D03*
X119950000Y-97333000D03*
X119950000Y-117000000D03*
X154000000Y-52500000D03*
X144000000Y-52500000D03*
X144000000Y-122500000D03*
X154000000Y-122500000D03*
X138001800Y-110000000D03*
X160201400Y-110000000D03*
X138001800Y-95000000D03*
X160201400Y-95000000D03*
X138001800Y-65000000D03*
X160201400Y-65000000D03*
X138001800Y-80000000D03*
X160201400Y-80000000D03*
D12*
G36*
X275859953Y-28121859D02*
X263886775Y-145858106D01*
X199127000Y-137887672D01*
X199127000Y-37000000D01*
X199116994Y-36950590D01*
X199088553Y-36908965D01*
X199046159Y-36881685D01*
X199000000Y-36873000D01*
X99000000Y-36873000D01*
X98950590Y-36883006D01*
X98908965Y-36911447D01*
X98881685Y-36953841D01*
X98873000Y-37000000D01*
X98873000Y-137875134D01*
X40121732Y-138870918D01*
X35132612Y-19132041D01*
X275859953Y-28121859D01*
X275859953Y-28121859D01*
G37*
X275859953Y-28121859D02*
X263886775Y-145858106D01*
X199127000Y-137887672D01*
X199127000Y-37000000D01*
X199116994Y-36950590D01*
X199088553Y-36908965D01*
X199046159Y-36881685D01*
X199000000Y-36873000D01*
X99000000Y-36873000D01*
X98950590Y-36883006D01*
X98908965Y-36911447D01*
X98881685Y-36953841D01*
X98873000Y-37000000D01*
X98873000Y-137875134D01*
X40121732Y-138870918D01*
X35132612Y-19132041D01*
X275859953Y-28121859D01*
M02*
